<svg width="24" height="24" viewBox="0 0 24 24" fill="none" xmlns="http://www.w3.org/2000/svg">
<g clip-path="url(#clip0)">
<path d="M13.9043 23.5926C15.8806 24.4461 17.9909 23.8856 19.3188 22.5379L21.8503 20.0204L15.8732 14.0433L12.7792 17.1514C10.318 15.6888 8.27878 13.6355 6.81605 11.1884L9.91009 8.08023L3.94704 2.11719L1.44383 4.62054C-0.00479024 6.06916 -0.412593 8.27717 0.445251 10.1195C2.41413 14.3808 6.33798 20.1752 13.9043 23.5926Z" fill="#F4F3ED"/>
<path d="M10.3416 12.6557H17.4016C20.9457 12.6557 23.8991 9.89915 23.9975 6.49575C24.1136 2.43062 20.3297 -0.80748 16.1358 0.181111C13.4635 0.814919 11.3401 3.24327 11.3401 6.32699C11.3401 7.22707 11.537 8.1272 11.9167 8.95692C12.3246 9.84294 12.1839 10.8133 11.5511 11.4603L10.3416 12.6557ZM15.5593 5.6238H16.9656V4.21742H18.372V5.6238H19.7784V7.03018H18.372V8.43656H16.9656V7.03018H15.5593V5.6238Z" fill="#F4F3ED"/>
</g>
<defs>
<clipPath id="clip0">
<rect width="24" height="24" fill="white"/>
</clipPath>
</defs>
</svg>
