<svg width="35" height="17" viewBox="0 0 35 17" fill="none" xmlns="http://www.w3.org/2000/svg">
<rect x="8.48535" y="16.9706" width="12" height="3" transform="rotate(-135 8.48535 16.9706)" fill="white"/>
<rect x="10.6067" y="2.12132" width="12" height="3" transform="rotate(135 10.6067 2.12132)" fill="white"/>
<rect x="35" y="9.99997" width="32" height="3" transform="rotate(180 35 9.99997)" fill="white"/>
</svg>
