<svg width="32" height="11" viewBox="0 0 32 11" fill="none" xmlns="http://www.w3.org/2000/svg">
<rect width="32" height="3" fill="white"/>
<rect x="8" y="8" width="24" height="3" fill="white"/>
</svg>
